…
    docs_df

    ## # A tibble: 901 x 2
    ##    doc_id content                                                      
    ##     <int> <chr>                                                        
    ##  1      1 兩指 更 神速 10 個 iPhone iPad 雙指 操作 小 技巧 秒 選取 必學
    ##  2      2 iPhone 的 設計 逼 我 跳槽 安卓                               
    ##  3      3 買 iphone 11                                                 
    ##  4      4 iPhone 9 SE2 現身 網購 平台 通訊 行 也 能 買 的 到           
    ##  5      5 請問 6 s plus 32 g 還是 oppo r15 或 vivo x23                 
    ##  6      6 請益 iPhone 11 的 3 D 滿版 保護 貼 與 保護 殼 要 怎選        
    ##  7      7 IPHONE 9 的 新聞 算是 假新聞 嗎 要 不要 罰錢 呀              
    ##  8      8 想 請問 怎麼樣 充電 的 方式 對 哀鳳 手機 是 好的             
    ##  9      9 內建 悠遊 卡                                                 
    ## 10     10 Lightning 數位 AV 轉接 想 請教 一下 好用嗎                   
    ## # ... with 891 more rows

### 將 docs\_df 轉成 tidytext format

    library(tidytext)

    tidy_text_format <- docs_df %>%
      unnest_tokens(output = "word", input = "content",
                    token = "regex", pattern = " ")
    tidy_text_format

    ## # A tibble: 6,717 x 2
    ##    doc_id word  
    ##     <int> <chr> 
    ##  1      1 兩指  
    ##  2      1 更    
    ##  3      1 神速  
    ##  4      1 10    
    ##  5      1 個    
    ##  6      1 iphone
    ##  7      1 ipad  
    ##  8      1 雙指  
    ##  9      1 操作  
    ## 10      1 小    
    ## # ... with 6,707 more rows

### 4. 詞頻表

    # Equivalent to ...
    tidy_text_format %>%
      count(word) %>%
      arrange(desc(n))

    ## # A tibble: 2,043 x 2
    ##    word       n
    ##    <chr>  <int>
    ##  1 iphone   370
    ##  2 的       220
    ##  3 11       142
    ##  4 pro       92
    ##  5 問題      82
    ##  6 嗎        81
    ##  7 xs        72
    ##  8 max       64
    ##  9 手機      64
    ## 10 更新      59
    ## # ... with 2,033 more rows
